{
	"id": "86cf49cf-0cb2-4125-91e6-19ae0f010c51",
	"name": "Localhost",
	"values": [
		{
			"key": "WEATHER_HOST",
			"value": "127.0.0.1:8000",
			"description": "",
			"enabled": true
		},
		{
			"key": "FORECAST_HOST",
			"value": "127.0.0.1:8000",
			"description": "",
			"enabled": true
		},
		{
			"key": "STEM_MS_APP_HOST",
			"value": "127.0.0.1:8000",
			"description": "",
			"enabled": true
		},
		{
			"key": "TOKEN",
			"value": "",
			"description": "",
			"enabled": true
		}
	],
	"_postman_variable_scope": "environment",
	"_postman_exported_at": "2019-02-07T22:47:24.432Z",
	"_postman_exported_using": "Postman/6.7.3"
}